Library\Bee\artifacts\mvdfrm\UnityEditor.UI.ref.dll_0174E068A5FA251B.mvfrm
Library\Bee\artifacts\mvdfrm\UnityEngine.UI.ref.dll_BDDAB6C3AC1C4D86.mvfrm
Library\Bee\artifacts\mvdfrm\Unity.Burst.Cecil.dll_28A1B23A93249F6C.mvfrm
Library\Bee\artifacts\mvdfrm\Unity.Burst.Cecil.Mdb.dll_E0B2B63F0C325DA9.mvfrm
Library\Bee\artifacts\mvdfrm\Unity.Burst.Cecil.Pdb.dll_F8052EAE8AE75F2C.mvfrm
Library\Bee\artifacts\mvdfrm\Unity.Burst.Cecil.Rocks.dll_614667697260BCCC.mvfrm
Library\Bee\artifacts\mvdfrm\Unity.Burst.Unsafe.dll_B4C2C0B5A064DD67.mvfrm
Library\Bee\artifacts\mvdfrm\Unity.Plastic.Antlr3.Runtime.dll_14DFFA273D3945CC.mvfrm
Library\Bee\artifacts\mvdfrm\Unity.Plastic.Newtonsoft.Json.dll_2626BD29901D44A9.mvfrm
Library\Bee\artifacts\mvdfrm\Unity.VisualScripting.IonicZip.dll_025B1F845C7787C5.mvfrm
Library\Bee\artifacts\mvdfrm\Unity.VisualScripting.YamlDotNet.dll_C12FF36CB5111147.mvfrm
Library\Bee\artifacts\mvdfrm\Unity.VisualScripting.TextureAssets.dll_584E1CC075DE6F3F.mvfrm
Library\Bee\artifacts\mvdfrm\Unity.VisualScripting.Antlr3.Runtime.dll_729D1A4DE5DA2166.mvfrm
Library\Bee\artifacts\mvdfrm\UnityEditor.Graphs.dll_ACCE4895DCEB957B.mvfrm
Library\Bee\artifacts\mvdfrm\UnityEditor.CoreModule.dll_063B41B7624C9449.mvfrm
Library\Bee\artifacts\mvdfrm\UnityEditor.DeviceSimulatorModule.dll_27043237DCBE8AC8.mvfrm
Library\Bee\artifacts\mvdfrm\UnityEditor.DiagnosticsModule.dll_378528DF6182CB16.mvfrm
Library\Bee\artifacts\mvdfrm\UnityEditor.dll_4381BD5EF3CF82FC.mvfrm
Library\Bee\artifacts\mvdfrm\UnityEditor.GraphViewModule.dll_99B895F1A1F6682D.mvfrm
Library\Bee\artifacts\mvdfrm\UnityEditor.PackageManagerUIModule.dll_F15F91A265445065.mvfrm
Library\Bee\artifacts\mvdfrm\UnityEditor.QuickSearchModule.dll_C294A9ECBA59C76F.mvfrm
Library\Bee\artifacts\mvdfrm\UnityEditor.SceneTemplateModule.dll_6617601A85C5D9D0.mvfrm
Library\Bee\artifacts\mvdfrm\UnityEditor.TextCoreFontEngineModule.dll_6233EE074E491FA7.mvfrm
Library\Bee\artifacts\mvdfrm\UnityEditor.TextCoreTextEngineModule.dll_AA1C2478DDCCD8C5.mvfrm
Library\Bee\artifacts\mvdfrm\UnityEditor.UIBuilderModule.dll_EE41430E14AEE161.mvfrm
Library\Bee\artifacts\mvdfrm\UnityEditor.UIElementsModule.dll_1951E8389ABF48E5.mvfrm
Library\Bee\artifacts\mvdfrm\UnityEditor.UIElementsSamplesModule.dll_491BAFDD09674DD8.mvfrm
Library\Bee\artifacts\mvdfrm\UnityEditor.UIServiceModule.dll_27335470FDE6317B.mvfrm
Library\Bee\artifacts\mvdfrm\UnityEditor.UnityConnectModule.dll_274C67D673BA677F.mvfrm
Library\Bee\artifacts\mvdfrm\UnityEngine.AccessibilityModule.dll_98BCCBB1863C016D.mvfrm
Library\Bee\artifacts\mvdfrm\UnityEngine.AIModule.dll_9F878BCDB79B337D.mvfrm
Library\Bee\artifacts\mvdfrm\UnityEngine.AndroidJNIModule.dll_979AD10BE3DEB7BB.mvfrm
Library\Bee\artifacts\mvdfrm\UnityEngine.AnimationModule.dll_683E121A7C533CD3.mvfrm
Library\Bee\artifacts\mvdfrm\UnityEngine.ARModule.dll_58FA50D114B89246.mvfrm
Library\Bee\artifacts\mvdfrm\UnityEngine.AssetBundleModule.dll_067DDCDE1CC07C61.mvfrm
Library\Bee\artifacts\mvdfrm\UnityEngine.AudioModule.dll_032C41E7F740B105.mvfrm
Library\Bee\artifacts\mvdfrm\UnityEngine.ClothModule.dll_6A149EE2D15D8FE9.mvfrm
Library\Bee\artifacts\mvdfrm\UnityEngine.CoreModule.dll_295C150A0A51FF74.mvfrm
Library\Bee\artifacts\mvdfrm\UnityEngine.CrashReportingModule.dll_81EB97454FE4C38C.mvfrm
Library\Bee\artifacts\mvdfrm\UnityEngine.DirectorModule.dll_000F61E41A068A91.mvfrm
Library\Bee\artifacts\mvdfrm\UnityEngine.dll_7626043752430FE1.mvfrm
Library\Bee\artifacts\mvdfrm\UnityEngine.DSPGraphModule.dll_0560C34D8C675BB2.mvfrm
Library\Bee\artifacts\mvdfrm\UnityEngine.GameCenterModule.dll_C1E81B26AA1FA8AC.mvfrm
Library\Bee\artifacts\mvdfrm\UnityEngine.GIModule.dll_37C3D4DB534A1B97.mvfrm
Library\Bee\artifacts\mvdfrm\UnityEngine.GridModule.dll_06CD30F822A6956B.mvfrm
Library\Bee\artifacts\mvdfrm\UnityEngine.HotReloadModule.dll_E986D02057865855.mvfrm
Library\Bee\artifacts\mvdfrm\UnityEngine.ImageConversionModule.dll_98A2F259CE9E5040.mvfrm
Library\Bee\artifacts\mvdfrm\UnityEngine.IMGUIModule.dll_3B8BE14EBD7244E6.mvfrm
Library\Bee\artifacts\mvdfrm\UnityEngine.InputLegacyModule.dll_97C2F7FCB4B23252.mvfrm
Library\Bee\artifacts\mvdfrm\UnityEngine.InputModule.dll_69A209986D78D5A9.mvfrm
Library\Bee\artifacts\mvdfrm\UnityEngine.JSONSerializeModule.dll_F8D454ED857761F7.mvfrm
Library\Bee\artifacts\mvdfrm\UnityEngine.LocalizationModule.dll_E535A73EBCBE2D3E.mvfrm
Library\Bee\artifacts\mvdfrm\UnityEngine.ParticleSystemModule.dll_D4FDE091BDF64F1A.mvfrm
Library\Bee\artifacts\mvdfrm\UnityEngine.PerformanceReportingModule.dll_BD7E8C74355E0833.mvfrm
Library\Bee\artifacts\mvdfrm\UnityEngine.Physics2DModule.dll_B4E4020B1D503468.mvfrm
Library\Bee\artifacts\mvdfrm\UnityEngine.PhysicsModule.dll_CBEB6858AF57DE76.mvfrm
Library\Bee\artifacts\mvdfrm\UnityEngine.ProfilerModule.dll_32559B1AB360119E.mvfrm
Library\Bee\artifacts\mvdfrm\UnityEngine.RuntimeInitializeOnLoadManagerInitializerModule.dll_9716F7FCCF0A7531.mvfrm
Library\Bee\artifacts\mvdfrm\UnityEngine.ScreenCaptureModule.dll_12BC027299E38E59.mvfrm
Library\Bee\artifacts\mvdfrm\UnityEngine.SharedInternalsModule.dll_1CB4312F45CC4B90.mvfrm
Library\Bee\artifacts\mvdfrm\UnityEngine.SpriteMaskModule.dll_AB148DB6CB8F3E26.mvfrm
Library\Bee\artifacts\mvdfrm\UnityEngine.SpriteShapeModule.dll_1FDF0A38D262B46B.mvfrm
Library\Bee\artifacts\mvdfrm\UnityEngine.StreamingModule.dll_1CD2FF6ACBDAF411.mvfrm
Library\Bee\artifacts\mvdfrm\UnityEngine.SubstanceModule.dll_F97E13B4172DF21F.mvfrm
Library\Bee\artifacts\mvdfrm\UnityEngine.SubsystemsModule.dll_15C1F41899D72639.mvfrm
Library\Bee\artifacts\mvdfrm\UnityEngine.TerrainModule.dll_E631E3C785162764.mvfrm
Library\Bee\artifacts\mvdfrm\UnityEngine.TerrainPhysicsModule.dll_D5788964D73949A7.mvfrm
Library\Bee\artifacts\mvdfrm\UnityEngine.TextCoreFontEngineModule.dll_E093695A6146DE72.mvfrm
Library\Bee\artifacts\mvdfrm\UnityEngine.TextCoreTextEngineModule.dll_287B9FCBF0CA9790.mvfrm
Library\Bee\artifacts\mvdfrm\UnityEngine.TextRenderingModule.dll_3BFB747D511B0E4E.mvfrm
Library\Bee\artifacts\mvdfrm\UnityEngine.TilemapModule.dll_852E4B489CD3086D.mvfrm
Library\Bee\artifacts\mvdfrm\UnityEngine.TLSModule.dll_3AA9EB6E425CA1CA.mvfrm
Library\Bee\artifacts\mvdfrm\UnityEngine.UIElementsModule.dll_1A0055809D036230.mvfrm
Library\Bee\artifacts\mvdfrm\UnityEngine.UIElementsNativeModule.dll_3BD94637D6BCC087.mvfrm
Library\Bee\artifacts\mvdfrm\UnityEngine.UIModule.dll_9AFB29FB13E23929.mvfrm
Library\Bee\artifacts\mvdfrm\UnityEngine.UmbraModule.dll_7E00EE0084675C78.mvfrm
Library\Bee\artifacts\mvdfrm\UnityEngine.UNETModule.dll_BC025CF35760F4ED.mvfrm
Library\Bee\artifacts\mvdfrm\UnityEngine.UnityAnalyticsCommonModule.dll_58BD49B84F46A691.mvfrm
Library\Bee\artifacts\mvdfrm\UnityEngine.UnityAnalyticsModule.dll_F49D515B6A1DA116.mvfrm
Library\Bee\artifacts\mvdfrm\UnityEngine.UnityConnectModule.dll_14ABEBE56E42682A.mvfrm
Library\Bee\artifacts\mvdfrm\UnityEngine.UnityCurlModule.dll_9B5AB34BEC672EC0.mvfrm
Library\Bee\artifacts\mvdfrm\UnityEngine.UnityTestProtocolModule.dll_04DE65CF6362A32E.mvfrm
Library\Bee\artifacts\mvdfrm\UnityEngine.UnityWebRequestAssetBundleModule.dll_652CBA4CDDF5A467.mvfrm
Library\Bee\artifacts\mvdfrm\UnityEngine.UnityWebRequestAudioModule.dll_357AE052BBC8D2CB.mvfrm
Library\Bee\artifacts\mvdfrm\UnityEngine.UnityWebRequestModule.dll_AA41FA03D992EABF.mvfrm
Library\Bee\artifacts\mvdfrm\UnityEngine.UnityWebRequestTextureModule.dll_2F364072CC2D8000.mvfrm
Library\Bee\artifacts\mvdfrm\UnityEngine.UnityWebRequestWWWModule.dll_F33DE527E08A53FC.mvfrm
Library\Bee\artifacts\mvdfrm\UnityEngine.VehiclesModule.dll_77D25B6394305A2C.mvfrm
Library\Bee\artifacts\mvdfrm\UnityEngine.VFXModule.dll_BB8883DD18CA0B37.mvfrm
Library\Bee\artifacts\mvdfrm\UnityEngine.VideoModule.dll_2835C652B9D2CCAA.mvfrm
Library\Bee\artifacts\mvdfrm\UnityEngine.VRModule.dll_EDCD5080B59CBEA1.mvfrm
Library\Bee\artifacts\mvdfrm\UnityEngine.WindModule.dll_9FAAF0329B887DDD.mvfrm
Library\Bee\artifacts\mvdfrm\UnityEngine.XRModule.dll_208C13853ED70BFF.mvfrm
Library\Bee\artifacts\mvdfrm\Unity.Android.Gradle.dll_BCA9A5AE7CA602B1.mvfrm
Library\Bee\artifacts\mvdfrm\Unity.Android.Types.dll_3138B55A0C95E01B.mvfrm
Library\Bee\artifacts\mvdfrm\UnityEditor.Android.Extensions.dll_59AA3302C7D9C791.mvfrm
Library\Bee\artifacts\mvdfrm\UnityEditor.WindowsStandalone.Extensions.dll_3EF761F92620A2E7.mvfrm