%YAML 1.1
%TAG !u! tag:unity3d.com,2011:
--- !u!1 &5929024538785181438
GameObject:
  m_ObjectHideFlags: 0
  m_CorrespondingSourceObject: {fileID: 0}
  m_PrefabInstance: {fileID: 0}
  m_PrefabAsset: {fileID: 0}
  serializedVersion: 6
  m_Component:
  - component: {fileID: 5929024538785181433}
  - component: {fileID: 982812796403137426}
  m_Layer: 0
  m_Name: Truck1
  m_TagString: Player
  m_Icon: {fileID: 0}
  m_NavMeshLayer: 0
  m_StaticEditorFlags: 0
  m_IsActive: 1
--- !u!4 &5929024538785181433
Transform:
  m_ObjectHideFlags: 0
  m_CorrespondingSourceObject: {fileID: 0}
  m_PrefabInstance: {fileID: 0}
  m_PrefabAsset: {fileID: 0}
  m_GameObject: {fileID: 5929024538785181438}
  m_LocalRotation: {x: 0, y: 0, z: 0, w: 1}
  m_LocalPosition: {x: 0, y: 0, z: 0}
  m_LocalScale: {x: 1, y: 1, z: 1}
  m_ConstrainProportionsScale: 0
  m_Children:
  - {fileID: 5929024538445483079}
  m_Father: {fileID: 0}
  m_RootOrder: 0
  m_LocalEulerAnglesHint: {x: 0, y: 0, z: 0}
--- !u!65 &982812796403137426
BoxCollider:
  m_ObjectHideFlags: 0
  m_CorrespondingSourceObject: {fileID: 0}
  m_PrefabInstance: {fileID: 0}
  m_PrefabAsset: {fileID: 0}
  m_GameObject: {fileID: 5929024538785181438}
  m_Material: {fileID: 0}
  m_IsTrigger: 0
  m_Enabled: 1
  serializedVersion: 2
  m_Size: {x: 1.9329665, y: 1.9690619, z: 3.6200552}
  m_Center: {x: -0.0028598309, y: 1.2741365, z: -0.13999999}
--- !u!1001 &5929024538445092551
PrefabInstance:
  m_ObjectHideFlags: 0
  serializedVersion: 2
  m_Modification:
    m_TransformParent: {fileID: 5929024538785181433}
    m_Modifications:
    - target: {fileID: 100000, guid: 20f0213bfc7c09a4aa72c00edf2d0146, type: 3}
      propertyPath: m_Name
      value: TruckModel
      objectReference: {fileID: 0}
    - target: {fileID: 400000, guid: 20f0213bfc7c09a4aa72c00edf2d0146, type: 3}
      propertyPath: m_RootOrder
      value: 0
      objectReference: {fileID: 0}
    - target: {fileID: 400000, guid: 20f0213bfc7c09a4aa72c00edf2d0146, type: 3}
      propertyPath: m_LocalPosition.x
      value: -0
      objectReference: {fileID: 0}
    - target: {fileID: 400000, guid: 20f0213bfc7c09a4aa72c00edf2d0146, type: 3}
      propertyPath: m_LocalPosition.y
      value: 0
      objectReference: {fileID: 0}
    - target: {fileID: 400000, guid: 20f0213bfc7c09a4aa72c00edf2d0146, type: 3}
      propertyPath: m_LocalPosition.z
      value: 0
      objectReference: {fileID: 0}
    - target: {fileID: 400000, guid: 20f0213bfc7c09a4aa72c00edf2d0146, type: 3}
      propertyPath: m_LocalRotation.w
      value: 1
      objectReference: {fileID: 0}
    - target: {fileID: 400000, guid: 20f0213bfc7c09a4aa72c00edf2d0146, type: 3}
      propertyPath: m_LocalRotation.x
      value: 0
      objectReference: {fileID: 0}
    - target: {fileID: 400000, guid: 20f0213bfc7c09a4aa72c00edf2d0146, type: 3}
      propertyPath: m_LocalRotation.y
      value: -0
      objectReference: {fileID: 0}
    - target: {fileID: 400000, guid: 20f0213bfc7c09a4aa72c00edf2d0146, type: 3}
      propertyPath: m_LocalRotation.z
      value: -0
      objectReference: {fileID: 0}
    - target: {fileID: 400000, guid: 20f0213bfc7c09a4aa72c00edf2d0146, type: 3}
      propertyPath: m_LocalEulerAnglesHint.x
      value: 0
      objectReference: {fileID: 0}
    - target: {fileID: 400000, guid: 20f0213bfc7c09a4aa72c00edf2d0146, type: 3}
      propertyPath: m_LocalEulerAnglesHint.y
      value: 0
      objectReference: {fileID: 0}
    - target: {fileID: 400000, guid: 20f0213bfc7c09a4aa72c00edf2d0146, type: 3}
      propertyPath: m_LocalEulerAnglesHint.z
      value: 0
      objectReference: {fileID: 0}
    - target: {fileID: 2300000, guid: 20f0213bfc7c09a4aa72c00edf2d0146, type: 3}
      propertyPath: m_Materials.Array.data[0]
      value: 
      objectReference: {fileID: 2100000, guid: 15ab62d467a35af4897069b3d0b9604e, type: 2}
    - target: {fileID: 2300002, guid: 20f0213bfc7c09a4aa72c00edf2d0146, type: 3}
      propertyPath: m_Materials.Array.data[0]
      value: 
      objectReference: {fileID: 2100000, guid: 15ab62d467a35af4897069b3d0b9604e, type: 2}
    - target: {fileID: 2300004, guid: 20f0213bfc7c09a4aa72c00edf2d0146, type: 3}
      propertyPath: m_Materials.Array.data[0]
      value: 
      objectReference: {fileID: 2100000, guid: 15ab62d467a35af4897069b3d0b9604e, type: 2}
    - target: {fileID: 2300006, guid: 20f0213bfc7c09a4aa72c00edf2d0146, type: 3}
      propertyPath: m_Materials.Array.data[0]
      value: 
      objectReference: {fileID: 2100000, guid: 15ab62d467a35af4897069b3d0b9604e, type: 2}
    - target: {fileID: 2300008, guid: 20f0213bfc7c09a4aa72c00edf2d0146, type: 3}
      propertyPath: m_Materials.Array.data[0]
      value: 
      objectReference: {fileID: 2100000, guid: 15ab62d467a35af4897069b3d0b9604e, type: 2}
    m_RemovedComponents: []
  m_SourcePrefab: {fileID: 100100000, guid: 20f0213bfc7c09a4aa72c00edf2d0146, type: 3}
--- !u!4 &5929024538445483079 stripped
Transform:
  m_CorrespondingSourceObject: {fileID: 400000, guid: 20f0213bfc7c09a4aa72c00edf2d0146, type: 3}
  m_PrefabInstance: {fileID: 5929024538445092551}
  m_PrefabAsset: {fileID: 0}
