%YAML 1.1
%TAG !u! tag:unity3d.com,2011:
--- !u!1 &2209384179077688211
GameObject:
  m_ObjectHideFlags: 0
  m_CorrespondingSourceObject: {fileID: 0}
  m_PrefabInstance: {fileID: 0}
  m_PrefabAsset: {fileID: 0}
  serializedVersion: 6
  m_Component:
  - component: {fileID: 2209384179077688210}
  - component: {fileID: 2188094470066409017}
  m_Layer: 0
  m_Name: Car3
  m_TagString: Enemy
  m_Icon: {fileID: 0}
  m_NavMeshLayer: 0
  m_StaticEditorFlags: 0
  m_IsActive: 1
--- !u!4 &2209384179077688210
Transform:
  m_ObjectHideFlags: 0
  m_CorrespondingSourceObject: {fileID: 0}
  m_PrefabInstance: {fileID: 0}
  m_PrefabAsset: {fileID: 0}
  m_GameObject: {fileID: 2209384179077688211}
  m_LocalRotation: {x: 0, y: 0, z: 0, w: 1}
  m_LocalPosition: {x: 0, y: 0, z: 0}
  m_LocalScale: {x: 1, y: 1, z: 1}
  m_ConstrainProportionsScale: 0
  m_Children:
  - {fileID: 2209384178957165267}
  m_Father: {fileID: 0}
  m_RootOrder: 0
  m_LocalEulerAnglesHint: {x: 0, y: 0, z: 0}
--- !u!65 &2188094470066409017
BoxCollider:
  m_ObjectHideFlags: 0
  m_CorrespondingSourceObject: {fileID: 0}
  m_PrefabInstance: {fileID: 0}
  m_PrefabAsset: {fileID: 0}
  m_GameObject: {fileID: 2209384179077688211}
  m_Material: {fileID: 0}
  m_IsTrigger: 0
  m_Enabled: 1
  serializedVersion: 2
  m_Size: {x: 1.6298964, y: 1.9690619, z: 3.6200552}
  m_Center: {x: -0.035276562, y: 1.2741365, z: 0.16150999}
--- !u!1001 &2209384178957039699
PrefabInstance:
  m_ObjectHideFlags: 0
  serializedVersion: 2
  m_Modification:
    m_TransformParent: {fileID: 2209384179077688210}
    m_Modifications:
    - target: {fileID: 100000, guid: d5f5c448a8bb2e849b53b606b4fb554e, type: 3}
      propertyPath: m_Name
      value: Car3Model
      objectReference: {fileID: 0}
    - target: {fileID: 400000, guid: d5f5c448a8bb2e849b53b606b4fb554e, type: 3}
      propertyPath: m_RootOrder
      value: 0
      objectReference: {fileID: 0}
    - target: {fileID: 400000, guid: d5f5c448a8bb2e849b53b606b4fb554e, type: 3}
      propertyPath: m_LocalPosition.x
      value: -0
      objectReference: {fileID: 0}
    - target: {fileID: 400000, guid: d5f5c448a8bb2e849b53b606b4fb554e, type: 3}
      propertyPath: m_LocalPosition.y
      value: 0
      objectReference: {fileID: 0}
    - target: {fileID: 400000, guid: d5f5c448a8bb2e849b53b606b4fb554e, type: 3}
      propertyPath: m_LocalPosition.z
      value: 0
      objectReference: {fileID: 0}
    - target: {fileID: 400000, guid: d5f5c448a8bb2e849b53b606b4fb554e, type: 3}
      propertyPath: m_LocalRotation.w
      value: 1
      objectReference: {fileID: 0}
    - target: {fileID: 400000, guid: d5f5c448a8bb2e849b53b606b4fb554e, type: 3}
      propertyPath: m_LocalRotation.x
      value: 0
      objectReference: {fileID: 0}
    - target: {fileID: 400000, guid: d5f5c448a8bb2e849b53b606b4fb554e, type: 3}
      propertyPath: m_LocalRotation.y
      value: -0
      objectReference: {fileID: 0}
    - target: {fileID: 400000, guid: d5f5c448a8bb2e849b53b606b4fb554e, type: 3}
      propertyPath: m_LocalRotation.z
      value: -0
      objectReference: {fileID: 0}
    - target: {fileID: 400000, guid: d5f5c448a8bb2e849b53b606b4fb554e, type: 3}
      propertyPath: m_LocalEulerAnglesHint.x
      value: 0
      objectReference: {fileID: 0}
    - target: {fileID: 400000, guid: d5f5c448a8bb2e849b53b606b4fb554e, type: 3}
      propertyPath: m_LocalEulerAnglesHint.y
      value: 0
      objectReference: {fileID: 0}
    - target: {fileID: 400000, guid: d5f5c448a8bb2e849b53b606b4fb554e, type: 3}
      propertyPath: m_LocalEulerAnglesHint.z
      value: 0
      objectReference: {fileID: 0}
    - target: {fileID: 2300000, guid: d5f5c448a8bb2e849b53b606b4fb554e, type: 3}
      propertyPath: m_Materials.Array.data[0]
      value: 
      objectReference: {fileID: 2100000, guid: c053c4693fc7246458f6d6255ad3c7f9, type: 2}
    - target: {fileID: 2300002, guid: d5f5c448a8bb2e849b53b606b4fb554e, type: 3}
      propertyPath: m_Materials.Array.data[0]
      value: 
      objectReference: {fileID: 2100000, guid: c053c4693fc7246458f6d6255ad3c7f9, type: 2}
    - target: {fileID: 2300004, guid: d5f5c448a8bb2e849b53b606b4fb554e, type: 3}
      propertyPath: m_Materials.Array.data[0]
      value: 
      objectReference: {fileID: 2100000, guid: c053c4693fc7246458f6d6255ad3c7f9, type: 2}
    - target: {fileID: 2300006, guid: d5f5c448a8bb2e849b53b606b4fb554e, type: 3}
      propertyPath: m_Materials.Array.data[0]
      value: 
      objectReference: {fileID: 2100000, guid: c053c4693fc7246458f6d6255ad3c7f9, type: 2}
    - target: {fileID: 2300008, guid: d5f5c448a8bb2e849b53b606b4fb554e, type: 3}
      propertyPath: m_Materials.Array.data[0]
      value: 
      objectReference: {fileID: 2100000, guid: c053c4693fc7246458f6d6255ad3c7f9, type: 2}
    m_RemovedComponents: []
  m_SourcePrefab: {fileID: 100100000, guid: d5f5c448a8bb2e849b53b606b4fb554e, type: 3}
--- !u!4 &2209384178957165267 stripped
Transform:
  m_CorrespondingSourceObject: {fileID: 400000, guid: d5f5c448a8bb2e849b53b606b4fb554e, type: 3}
  m_PrefabInstance: {fileID: 2209384178957039699}
  m_PrefabAsset: {fileID: 0}
