Library\Bee\artifacts\mvdfrm\UnityEngine.UI.ref.dll_AFC2E85BC2EDBC0B.mvfrm
Library\Bee\artifacts\mvdfrm\Unity.Burst.Cecil.dll_28A1B23A93249F6C.mvfrm
Library\Bee\artifacts\mvdfrm\Unity.Burst.Cecil.Mdb.dll_E0B2B63F0C325DA9.mvfrm
Library\Bee\artifacts\mvdfrm\Unity.Burst.Cecil.Pdb.dll_F8052EAE8AE75F2C.mvfrm
Library\Bee\artifacts\mvdfrm\Unity.Burst.Cecil.Rocks.dll_614667697260BCCC.mvfrm
Library\Bee\artifacts\mvdfrm\Unity.Burst.Unsafe.dll_B4C2C0B5A064DD67.mvfrm
Library\Bee\artifacts\mvdfrm\Unity.VisualScripting.Antlr3.Runtime.dll_729D1A4DE5DA2166.mvfrm
Library\Bee\artifacts\mvdfrm\UnityEngine.AccessibilityModule.dll_105E3B2A3FED31A0.mvfrm
Library\Bee\artifacts\mvdfrm\UnityEngine.AIModule.dll_AA2E2311692CECDA.mvfrm
Library\Bee\artifacts\mvdfrm\UnityEngine.AndroidJNIModule.dll_64421E5AA5381F98.mvfrm
Library\Bee\artifacts\mvdfrm\UnityEngine.AnimationModule.dll_7A73F2C4D43CA846.mvfrm
Library\Bee\artifacts\mvdfrm\UnityEngine.ARModule.dll_63A0E814C64A4BA3.mvfrm
Library\Bee\artifacts\mvdfrm\UnityEngine.AssetBundleModule.dll_25777C4465A72434.mvfrm
Library\Bee\artifacts\mvdfrm\UnityEngine.AudioModule.dll_16611B64D90187B8.mvfrm
Library\Bee\artifacts\mvdfrm\UnityEngine.ClothModule.dll_7D49785FB31E669C.mvfrm
Library\Bee\artifacts\mvdfrm\UnityEngine.CoreModule.dll_C4D6EB1E3C263671.mvfrm
Library\Bee\artifacts\mvdfrm\UnityEngine.CrashReportingModule.dll_C1656A310EC8BAA9.mvfrm
Library\Bee\artifacts\mvdfrm\UnityEngine.DirectorModule.dll_5DD111C232D018CE.mvfrm
Library\Bee\artifacts\mvdfrm\UnityEngine.dll_1B0AD8A2F54D4854.mvfrm
Library\Bee\artifacts\mvdfrm\UnityEngine.DSPGraphModule.dll_6322732BA530E9EF.mvfrm
Library\Bee\artifacts\mvdfrm\UnityEngine.GameCenterModule.dll_8E8F68756B791089.mvfrm
Library\Bee\artifacts\mvdfrm\UnityEngine.GIModule.dll_426A6C1F04DBD4F4.mvfrm
Library\Bee\artifacts\mvdfrm\UnityEngine.GridModule.dll_A248070C547ACC68.mvfrm
Library\Bee\artifacts\mvdfrm\UnityEngine.HotReloadModule.dll_FBBCB0CAAF6FC3C8.mvfrm
Library\Bee\artifacts\mvdfrm\UnityEngine.ImageConversionModule.dll_1C665FD134C8D4D3.mvfrm
Library\Bee\artifacts\mvdfrm\UnityEngine.IMGUIModule.dll_4EC0BACB9F331B99.mvfrm
Library\Bee\artifacts\mvdfrm\UnityEngine.InputLegacyModule.dll_B6BC9762FD98DA25.mvfrm
Library\Bee\artifacts\mvdfrm\UnityEngine.InputModule.dll_7CD6E3154F39AC5C.mvfrm
Library\Bee\artifacts\mvdfrm\UnityEngine.JSONSerializeModule.dll_7075C4663F28922A.mvfrm
Library\Bee\artifacts\mvdfrm\UnityEngine.LocalizationModule.dll_7BFC3C05FAF8E2BB.mvfrm
Library\Bee\artifacts\mvdfrm\UnityEngine.ParticleSystemModule.dll_1477B37D7CDA4637.mvfrm
Library\Bee\artifacts\mvdfrm\UnityEngine.PerformanceReportingModule.dll_C1EA9432D8BE7C30.mvfrm
Library\Bee\artifacts\mvdfrm\UnityEngine.Physics2DModule.dll_C719E2B575399FDB.mvfrm
Library\Bee\artifacts\mvdfrm\UnityEngine.PhysicsModule.dll_54A7B8C7C75FD989.mvfrm
Library\Bee\artifacts\mvdfrm\UnityEngine.ProfilerModule.dll_90174AF8CC299FDB.mvfrm
Library\Bee\artifacts\mvdfrm\UnityEngine.RuntimeInitializeOnLoadManagerInitializerModule.dll_BBE81988658B46A4.mvfrm
Library\Bee\artifacts\mvdfrm\UnityEngine.ScreenCaptureModule.dll_8A5D71EB5394BE8C.mvfrm
Library\Bee\artifacts\mvdfrm\UnityEngine.SharedInternalsModule.dll_A0779EA6ABF6D023.mvfrm
Library\Bee\artifacts\mvdfrm\UnityEngine.SpriteMaskModule.dll_77BBDB058CE8A603.mvfrm
Library\Bee\artifacts\mvdfrm\UnityEngine.SpriteShapeModule.dll_3ED8A99F1B495C3E.mvfrm
Library\Bee\artifacts\mvdfrm\UnityEngine.StreamingModule.dll_2F08E01523C45F84.mvfrm
Library\Bee\artifacts\mvdfrm\UnityEngine.SubstanceModule.dll_0BB3F45E6F175D92.mvfrm
Library\Bee\artifacts\mvdfrm\UnityEngine.SubsystemsModule.dll_E26941675B308E16.mvfrm
Library\Bee\artifacts\mvdfrm\UnityEngine.TerrainModule.dll_6EEE34369D1E2277.mvfrm
Library\Bee\artifacts\mvdfrm\UnityEngine.TerrainPhysicsModule.dll_14F25C50961D40C4.mvfrm
Library\Bee\artifacts\mvdfrm\UnityEngine.TextCoreFontEngineModule.dll_C43E256C8BBF34CF.mvfrm
Library\Bee\artifacts\mvdfrm\UnityEngine.TextCoreTextEngineModule.dll_0C265BDE1B42EDED.mvfrm
Library\Bee\artifacts\mvdfrm\UnityEngine.TextRenderingModule.dll_B39CE3F60ACC3E81.mvfrm
Library\Bee\artifacts\mvdfrm\UnityEngine.TilemapModule.dll_0DEA9BB7B4DB0380.mvfrm
Library\Bee\artifacts\mvdfrm\UnityEngine.TLSModule.dll_906D4303711F201D.mvfrm
Library\Bee\artifacts\mvdfrm\UnityEngine.UIElementsModule.dll_E6A7A2CF5E5CCA0D.mvfrm
Library\Bee\artifacts\mvdfrm\UnityEngine.UIElementsNativeModule.dll_1EBA3A1F31586D44.mvfrm
Library\Bee\artifacts\mvdfrm\UnityEngine.UIModule.dll_A5A1C13EC573F286.mvfrm
Library\Bee\artifacts\mvdfrm\UnityEngine.UmbraModule.dll_9135C77D6628332B.mvfrm
Library\Bee\artifacts\mvdfrm\UnityEngine.UNETModule.dll_577D330789352BEA.mvfrm
Library\Bee\artifacts\mvdfrm\UnityEngine.UnityAnalyticsCommonModule.dll_5D295176F2A71A8E.mvfrm
Library\Bee\artifacts\mvdfrm\UnityEngine.UnityAnalyticsModule.dll_3417244729019833.mvfrm
Library\Bee\artifacts\mvdfrm\UnityEngine.UnityConnectModule.dll_AB7280ACAC7D1DA7.mvfrm
Library\Bee\artifacts\mvdfrm\UnityEngine.UnityCurlModule.dll_AD9093F644509A33.mvfrm
Library\Bee\artifacts\mvdfrm\UnityEngine.UnityTestProtocolModule.dll_84B9743DE0C6C821.mvfrm
Library\Bee\artifacts\mvdfrm\UnityEngine.UnityWebRequestAssetBundleModule.dll_5E9B98C236842944.mvfrm
Library\Bee\artifacts\mvdfrm\UnityEngine.UnityWebRequestAudioModule.dll_39E6E8115F2946C8.mvfrm
Library\Bee\artifacts\mvdfrm\UnityEngine.UnityWebRequestModule.dll_2E05677B3FBD6F52.mvfrm
Library\Bee\artifacts\mvdfrm\UnityEngine.UnityWebRequestTextureModule.dll_5A222C08FC38059D.mvfrm
Library\Bee\artifacts\mvdfrm\UnityEngine.UnityWebRequestWWWModule.dll_D6E8A13A0B02AA59.mvfrm
Library\Bee\artifacts\mvdfrm\UnityEngine.VehiclesModule.dll_D5940B41ACF9E869.mvfrm
Library\Bee\artifacts\mvdfrm\UnityEngine.VFXModule.dll_114BDB72478C898A.mvfrm
Library\Bee\artifacts\mvdfrm\UnityEngine.VideoModule.dll_3B6A9FCF9B93A35D.mvfrm
Library\Bee\artifacts\mvdfrm\UnityEngine.VRModule.dll_F873E7C4672E77FE.mvfrm
Library\Bee\artifacts\mvdfrm\UnityEngine.WindModule.dll_3B25C646CD5CB4DA.mvfrm
Library\Bee\artifacts\mvdfrm\UnityEngine.XRModule.dll_2B32AAC8F068C55C.mvfrm